<?xml version="1.0" encoding="UTF-8" standalone="no"?>
<svg width="260px" height="126px" viewBox="0 0 260 126" version="1.1" xmlns="http://www.w3.org/2000/svg" xmlns:xlink="http://www.w3.org/1999/xlink">
    <!-- Generator: sketchtool 41 (35326) - http://www.bohemiancoding.com/sketch -->
    <title>06DE06B3-06DA-4515-9093-250CB2478C06</title>
    <desc>Created with sketchtool.</desc>
    <defs></defs>
    <g id="Page-1" stroke="none" stroke-width="1" fill="none" fill-rule="evenodd">
        <g id="AnadirComanda" transform="translate(-196.000000, -552.000000)" fill="#FFFFFF">
            <g id="Group" transform="translate(196.000000, 552.000000)">
                <path d="M60.5352071,106.369967 C60.5352071,101.337208 56.4507394,97.2523924 51.4176324,97.2523924 L33.1831782,97.2523924 C28.1500711,97.2523924 24.0656034,101.337208 24.0656034,106.369967 C24.0656034,111.403074 28.1500711,115.487542 33.1831782,115.487542 L51.41798,115.487542 C56.4507394,115.487542 60.5352071,111.403074 60.5352071,106.369967 L60.5352071,106.369967 Z M130.435571,36.4696037 C135.474587,36.4696037 139.553145,32.385136 139.553145,27.352029 L139.553145,9.11757473 C139.553145,4.08446769 135.474587,0 130.435571,0 C125.396554,0 121.317996,4.08446769 121.317996,9.11757473 L121.317996,27.3523766 C121.317996,32.385136 125.396554,36.4696037 130.435571,36.4696037 L130.435571,36.4696037 Z M191.218359,54.7047532 C193.734739,54.7047532 196.014046,53.6834625 197.661042,52.036466 L209.817809,39.8796997 C211.471062,38.2264462 212.492005,35.9471395 212.492005,33.4307597 C212.492005,28.3980003 208.413795,24.313185 203.37443,24.313185 C200.858398,24.313185 198.578744,25.3344757 196.92549,26.9877292 L184.768724,39.1441479 C183.121728,40.791492 182.100437,43.0707987 182.100437,45.5871784 C182.101132,50.6199379 186.179343,54.7047532 191.218359,54.7047532 L191.218359,54.7047532 Z M63.2034943,52.0361184 C64.8567478,53.6831148 67.1360546,54.7044056 69.6527819,54.7044056 C74.6855413,54.7044056 78.7703566,50.6199379 78.7703566,45.5868308 C78.7703566,43.0704511 77.7490659,40.7911443 76.1020695,39.1378909 L63.9453031,26.9814722 C62.2920497,25.3341281 60.0127429,24.313185 57.4963632,24.313185 C52.4636038,24.313185 48.3787884,28.3976527 48.3787884,33.4307597 C48.3787884,35.9471395 49.4000792,38.2264462 51.0470756,39.8737903 L63.2034943,52.0361184 L63.2034943,52.0361184 Z M227.687963,97.2523924 L209.453161,97.2523924 C204.420054,97.2523924 200.335586,101.33686 200.335586,106.369967 C200.335586,111.403074 204.420054,115.487542 209.453161,115.487542 L227.687963,115.487542 C232.72107,115.487542 236.805538,111.403074 236.805538,106.369967 C236.805538,101.337208 232.72107,97.2523924 227.687963,97.2523924 L227.687963,97.2523924 Z M69.9901365,115.514896 C69.541385,112.466472 69.3089379,109.348606 69.3089379,106.177442 C69.3089379,70.9842782 97.9377541,42.355462 133.130918,42.355462 C168.324082,42.355462 196.952898,70.9842782 196.952898,106.177442 C196.952898,109.348606 196.720451,112.466472 196.2717,115.514896 L69.9901365,115.514896 Z" id="Combined-Shape"></path>
                <rect id="Rectangle-5" x="0" y="116.477521" width="259.908517" height="9.52247939"></rect>
            </g>
        </g>
    </g>
</svg>