<svg xmlns="http://www.w3.org/2000/svg" width="66" height="80" viewBox="0 0 66 80">
    <g fill="none" fill-rule="evenodd">
        <path fill="#FFF" d="M58.846 61.984L45.14 55.161a3.756 3.756 0 0 1-2.097-3.378v-4.83c.329-.4.675-.856 1.032-1.359a32.641 32.641 0 0 0 4.238-8.284 5.667 5.667 0 0 0 3.34-5.167v-5.714a5.683 5.683 0 0 0-1.436-3.75V15.08c.08-.786.396-5.463-3.001-9.321C44.269 2.41 39.486.714 33 .714c-6.487 0-11.269 1.697-14.216 5.043-3.397 3.859-3.082 8.537-3.001 9.322v7.598a5.683 5.683 0 0 0-1.435 3.75v5.714c0 1.739.793 3.36 2.148 4.442 1.314 5.181 4.064 9.086 5.026 10.338v4.728a3.772 3.772 0 0 1-1.976 3.314l-12.8 6.951A12.878 12.878 0 0 0 0 73.231v6.055h66V73.51c0-4.913-2.742-9.329-7.154-11.526z"/>
        <path fill="#000" fill-opacity=".8" d="M39.85 57.039l-4.523 1.304c-.07.02-.136.037-.21.046-.73-.64-1.682-1.064-2.723-1.064-1.044 0-1.993.423-2.725 1.064-.07-.011-.14-.029-.209-.046l-4.504-1.304c-1.35-.388-2.63.623-2.63 2.021v5.102c0 1.405 1.283 2.413 2.636 2.022l4.705-1.363a4.302 4.302 0 0 0 2.729 1.08c1.053-.032 2-.433 2.733-1.08l4.716 1.363c1.351.391 2.654-.617 2.654-2.022V59.06c.003-1.398-1.296-2.409-2.65-2.021z"/>
        <path fill="#000" stroke="#000" stroke-opacity=".8" d="M51.943 71.463c0 .807-.625 1.458-1.436 1.458h-5.98c-.81 0-1.484-.651-1.484-1.458v-.034c0-.808.672-1.429 1.484-1.429h5.98c.81 0 1.436.624 1.436 1.429v.034z"/>
    </g>
</svg>
