<svg xmlns="http://www.w3.org/2000/svg" width="312" height="312" viewBox="0 0 312 312">
    <g fill="none" fill-rule="evenodd">
        <circle cx="156" cy="156" r="156" fill="#FD9426"/>
        <path fill="#FFF" d="M120.133 128.454V237.83c0 2.852 1.043 5.319 3.133 7.402 2.053 2.048 4.482 3.079 7.282 3.111 2.797-.032 5.229-1.063 7.284-3.111 2.088-2.083 3.13-4.55 3.13-7.402V128.454c3.133-1.094 14.875-11.536 14.875-14.884V69.58c0-1.422-.523-2.657-1.566-3.7-1.045-1.04-2.282-1.562-3.708-1.562-1.43 0-2.665.522-3.708 1.562-1.045 1.045-1.567 2.278-1.567 3.7v34.206c0 1.426-.523 2.659-1.566 3.699-1.045 1.043-2.28 1.56-3.708 1.56-1.43 0-2.665-.517-3.708-1.56-1.043-1.04-1.567-2.275-1.567-3.7V69.58c0-1.422-.523-2.657-1.566-3.7-1.043-1.04-2.28-1.562-3.708-1.562-1.43 0-2.665.522-3.708 1.562-1.045 1.045-1.566 2.278-1.566 3.7v34.206c0 1.426-.524 2.659-1.567 3.699-1.045 1.043-2.28 1.56-3.708 1.56-1.43 0-2.665-.517-3.708-1.56-1.045-1.04-1.566-2.275-1.566-3.7V69.58c0-1.422-.522-2.657-1.567-3.7-1.043-1.04-2.28-1.562-3.708-1.562-1.43 0-2.665.522-3.708 1.562-1.043 1.045-1.566 2.278-1.566 3.7v43.99c.001 3.347 13.907 13.789 17.04 14.885z"/>
        <path fill="#000" d="M130.821 248.362c-.07 0-.135-.02-.204-.02-.069 0-.132.02-.204.02h.408zM198.176 250.52c-.07 0-.134-.02-.203-.02-.07 0-.136.02-.204.02h.407z"/>
        <path fill="#FFF" d="M175.516 154.723h11.972v85.266c0 2.851 1.043 5.318 3.13 7.4 2.055 2.05 4.485 3.08 7.284 3.113 2.797-.032 5.229-1.064 7.284-3.112 2.088-2.083 3.133-4.55 3.133-7.401V65.262c0-1.422-.524-2.657-1.566-3.7-1.045-1.04-2.28-1.562-3.708-1.562h-3.79c-7.254 0-13.463 2.577-18.627 7.73-5.164 5.153-7.747 11.348-7.747 18.582v65.78c0 .713.262 1.33.783 1.85.52.52 1.138.781 1.852.781z"/>
        <text fill="#FFF" font-family=".HelveticaNeueDeskInterface-Regular, .Helvetica Neue DeskInterface" font-size="25">
            <tspan x="121.401" y="285.012">Logo</tspan>
        </text>
    </g>
</svg>
